{
  "openapi" : "3.0.1",
  "info" : {
    "title" : "펫플리 API 문서",
    "description" : "Spring REST Docs with SwaggerUI.",
    "version" : "0.0.1"
  },
  "servers" : [ {
    "url" : "http://ec2-3-35-216-90.ap-northeast-2.compute.amazonaws.com:8080"
  } ],
  "tags" : [ ],
  "paths" : {
    "/api/members/{member-id}" : {
      "patch" : {
        "tags" : [ "api" ],
        "summary" : "회원 정보 수정",
        "description" : "회원 정보 수정",
        "operationId" : "회원정보 수정 테스트",
        "parameters" : [ {
          "name" : "member-id",
          "in" : "path",
          "description" : "사용자 식별자",
          "required" : true,
          "schema" : {
            "type" : "string"
          }
        } ],
        "requestBody" : {
          "content" : {
            "application/json;charset=UTF-8" : {
              "schema" : {
                "$ref" : "#/components/schemas/api-members-member-id-120263164"
              },
              "examples" : {
                "회원정보 수정 테스트" : {
                  "value" : "{\n  \"name\" : \"내가진짜홍길동\",\n  \"profile\" : \"수정된 프로필 이미지\"\n}"
                }
              }
            }
          }
        },
        "responses" : {
          "200" : {
            "description" : "200",
            "content" : {
              "application/json;charset=UTF-8" : {
                "schema" : {
                  "$ref" : "#/components/schemas/api-members-member-id-793076289"
                },
                "examples" : {
                  "회원정보 수정 테스트" : {
                    "value" : "{\n  \"email\" : \"hgd@gmail.com\",\n  \"name\" : \"내가진짜홍길동\",\n  \"profile\" : \"수정된 프로필 이미지\"\n}"
                  }
                }
              }
            }
          }
        }
      }
    },
    "/api/playlist/{member-id}" : {
      "post" : {
        "tags" : [ "api" ],
        "summary" : "개인 플레이 리스트(좋아요)에 곡 추가 기능",
        "description" : "개인 플레이 리스트(좋아요)에 곡 추가 기능",
        "operationId" : "개인 플레이 리스트(좋아요)에 곡 추가",
        "parameters" : [ {
          "name" : "member-id",
          "in" : "path",
          "description" : "회원 식별 Id",
          "required" : true,
          "schema" : {
            "type" : "string"
          }
        } ],
        "requestBody" : {
          "content" : {
            "application/json;charset=UTF-8" : {
              "schema" : {
                "$ref" : "#/components/schemas/api-playlist-member-id1424350679"
              },
              "examples" : {
                "개인 플레이 리스트(좋아요)에 곡 추가" : {
                  "value" : "{\n  \"musicId\" : 1\n}"
                }
              }
            }
          }
        },
        "responses" : {
          "201" : {
            "description" : "201"
          }
        }
      },
      "delete" : {
        "tags" : [ "api" ],
        "summary" : "개인 플레이 리스트(좋아요) 곡 삭제 기능",
        "description" : "개인 플레이 리스트(좋아요) 곡 삭제 기능",
        "operationId" : "개인 플레이 리스트(좋아요) 곡 삭제",
        "parameters" : [ {
          "name" : "member-id",
          "in" : "path",
          "description" : "회원 식별 Id",
          "required" : true,
          "schema" : {
            "type" : "string"
          }
        } ],
        "requestBody" : {
          "content" : {
            "application/json;charset=UTF-8" : {
              "schema" : {
                "$ref" : "#/components/schemas/api-playlist-member-id1424350679"
              },
              "examples" : {
                "개인 플레이 리스트(좋아요) 곡 삭제" : {
                  "value" : "{\n  \"musicId\" : 1\n}"
                }
              }
            }
          }
        },
        "responses" : {
          "204" : {
            "description" : "204"
          }
        }
      }
    },
    "/api/playlist/{dogOrCats}/id/{member-id}" : {
      "get" : {
        "tags" : [ "api" ],
        "summary" : "로그인 상태인 회원의 카테고리 테크별 조회 API",
        "description" : "로그인 상태인 회원의 카테고리 테크별 조회 API",
        "operationId" : "카테고리 테크별 조회 API(로그인 된 회원)",
        "parameters" : [ {
          "name" : "dogOrCats",
          "in" : "path",
          "description" : "카테고리(DOGS,CATS)",
          "required" : true,
          "schema" : {
            "type" : "string"
          }
        }, {
          "name" : "member-id",
          "in" : "path",
          "description" : "회원 식별 Id",
          "required" : true,
          "schema" : {
            "type" : "number"
          }
        }, {
          "name" : "page",
          "in" : "query",
          "description" : "가져올 페이지 숫자",
          "required" : true,
          "schema" : {
            "type" : "number"
          }
        }, {
          "name" : "tags",
          "in" : "query",
          "description" : "조회 할 태그",
          "required" : false,
          "schema" : {
            "type" : "string"
          }
        } ],
        "responses" : {
          "200" : {
            "description" : "200",
            "content" : {
              "application/json;charset=UTF-8" : {
                "schema" : {
                  "$ref" : "#/components/schemas/api-playlist-dogOrCats-id-member-id452722795"
                },
                "examples" : {
                  "카테고리 테크별 조회 API(로그인 된 회원)" : {
                    "value" : "{\n  \"data\" : [ {\n    \"musicId\" : 1,\n    \"title\" : \"노래제목입니다.\",\n    \"music_url\" : \"test.com/test/test.mp3\",\n    \"image_url\" : \"test.com/test/test.jpg\",\n    \"category\" : \"dogs\",\n    \"tags\" : \"편안한\",\n    \"liked\" : true\n  }, {\n    \"musicId\" : 1,\n    \"title\" : \"노래제목입니다.\",\n    \"music_url\" : \"test.com/test2/test2.mp3\",\n    \"image_url\" : \"test.com/test2/test2.jpg\",\n    \"category\" : \"dogs\",\n    \"tags\" : \"편안한\",\n    \"liked\" : false\n  }, {\n    \"musicId\" : 1,\n    \"title\" : \"노래제목입니다.\",\n    \"music_url\" : \"test.com/test4/test4.mp3\",\n    \"image_url\" : \"test.com/test4/test4.jpg\",\n    \"category\" : \"dogs\",\n    \"tags\" : \"편안한\",\n    \"liked\" : true\n  } ],\n  \"pageInfo\" : {\n    \"page\" : 1,\n    \"size\" : 6,\n    \"totalElements\" : 53,\n    \"totalPages\" : 9\n  }\n}"
                  }
                }
              }
            }
          }
        }
      }
    },
    "/public/musics" : {
      "get" : {
        "tags" : [ "public" ],
        "summary" : "인증되지 않은 사용자의 음악 상세 조회",
        "description" : "인증되지 않은 사용자의 음악 상세 조회",
        "operationId" : "인증되지 않은 사용자의 음악 상세 조회(곡 제목)",
        "parameters" : [ {
          "name" : "music_name",
          "in" : "query",
          "description" : "검색을 위한 음악의 이름",
          "required" : true,
          "schema" : {
            "type" : "string"
          }
        } ],
        "responses" : {
          "200" : {
            "description" : "200",
            "content" : {
              "application/json;charset=UTF-8" : {
                "schema" : {
                  "$ref" : "#/components/schemas/public-musics-384126822"
                },
                "examples" : {
                  "인증되지 않은 사용자의 음악 상세 조회(곡 제목)" : {
                    "value" : "{\n  \"musicId\" : 1,\n  \"title\" : \"곡의 이름입니다\",\n  \"music_url\" : \"/music/test.mp3\",\n  \"image_url\" : \"/img/test.jpg\",\n  \"tags\" : \"dogs\"\n}"
                  }
                }
              }
            }
          }
        }
      }
    },
    "/public/signup" : {
      "post" : {
        "tags" : [ "public" ],
        "summary" : "회원 가입",
        "description" : "회원 가입",
        "operationId" : "회원가입 예제",
        "requestBody" : {
          "content" : {
            "application/json;charset=UTF-8" : {
              "schema" : {
                "$ref" : "#/components/schemas/public-signup-1374076140"
              },
              "examples" : {
                "회원가입 예제" : {
                  "value" : "{\n  \"email\" : \"hgd@gmail.com\",\n  \"password\" : \"a12341234\",\n  \"name\" : \"내가바로홍길동\"\n}"
                }
              }
            }
          }
        },
        "responses" : {
          "201" : {
            "description" : "201",
            "content" : {
              "application/json;charset=UTF-8" : {
                "schema" : {
                  "$ref" : "#/components/schemas/public-signup917238402"
                },
                "examples" : {
                  "회원가입 예제" : {
                    "value" : "{\n  \"memberId\" : 1,\n  \"email\" : \"hgd@gmail.com\",\n  \"name\" : \"내가바로홍길동\"\n}"
                  }
                }
              }
            }
          }
        }
      }
    },
    "/public/playlist/{dogOrCats}" : {
      "get" : {
        "tags" : [ "public" ],
        "summary" : "비 로그인 상태 시 카테고리 테크별 조회 API",
        "description" : "비 로그인 상태 시 카테고리 테크별 조회 API",
        "operationId" : "카테고리 테크별 조회 API(비 로그인)",
        "parameters" : [ {
          "name" : "dogOrCats",
          "in" : "path",
          "description" : "카테고리(DOGS,CATS)",
          "required" : true,
          "schema" : {
            "type" : "string"
          }
        }, {
          "name" : "page",
          "in" : "query",
          "description" : "가져올 페이지 숫자",
          "required" : true,
          "schema" : {
            "type" : "number"
          }
        }, {
          "name" : "tags",
          "in" : "query",
          "description" : "조회 할 태그",
          "required" : false,
          "schema" : {
            "type" : "string"
          }
        } ],
        "responses" : {
          "200" : {
            "description" : "200",
            "content" : {
              "application/json;charset=UTF-8" : {
                "schema" : {
                  "$ref" : "#/components/schemas/public-playlist-dogOrCats-152598876"
                },
                "examples" : {
                  "카테고리 테크별 조회 API(비 로그인)" : {
                    "value" : "{\n  \"data\" : [ {\n    \"musicId\" : 7,\n    \"title\" : \"7번째 곡\",\n    \"music_url\" : \"test.com/test1/test1.mp3\",\n    \"image_url\" : \"test.com/test1/test1.jpg\",\n    \"category\" : \"cats\",\n    \"tags\" : \"행복한\"\n  }, {\n    \"musicId\" : 8,\n    \"title\" : \"8번째 곡\",\n    \"music_url\" : \"test.com/test2/test2.mp3\",\n    \"image_url\" : \"test.com/test2/test2.jpg\",\n    \"category\" : \"cats\",\n    \"tags\" : \"행복한\"\n  }, {\n    \"musicId\" : 9,\n    \"title\" : \"9번째 곡\",\n    \"music_url\" : \"test.com/test2/test3.mp3\",\n    \"image_url\" : \"test.com/test2/test3.jpg\",\n    \"category\" : \"cats\",\n    \"tags\" : \"행복한\"\n  }, {\n    \"musicId\" : 10,\n    \"title\" : \"10번째 곡\",\n    \"music_url\" : \"test.com/test2/test4.mp3\",\n    \"image_url\" : \"test.com/test2/test4.jpg\",\n    \"category\" : \"cats\",\n    \"tags\" : \"행복한\"\n  } ],\n  \"pageInfo\" : {\n    \"page\" : 2,\n    \"size\" : 6,\n    \"totalElements\" : 50,\n    \"totalPages\" : 9\n  }\n}"
                  }
                }
              }
            }
          }
        }
      }
    }
  },
  "components" : {
    "schemas" : {
      "public-musics-384126822" : {
        "type" : "object",
        "properties" : {
          "music_url" : {
            "type" : "string",
            "description" : "곡 url"
          },
          "musicId" : {
            "type" : "number",
            "description" : "회원 식별 Id"
          },
          "image_url" : {
            "type" : "string",
            "description" : "이미지 url"
          },
          "title" : {
            "type" : "string",
            "description" : "곡 이름"
          },
          "tags" : {
            "type" : "string",
            "description" : "곡의 태그"
          }
        }
      },
      "api-members-member-id-120263164" : {
        "type" : "object",
        "properties" : {
          "profile" : {
            "type" : "string",
            "description" : "프로필 이미지"
          },
          "name" : {
            "type" : "string",
            "description" : "닉네임"
          }
        }
      },
      "api-playlist-member-id1424350679" : {
        "type" : "object",
        "properties" : {
          "musicId" : {
            "type" : "number",
            "description" : "음악 식별 Id"
          }
        }
      },
      "public-playlist-dogOrCats-152598876" : {
        "type" : "object",
        "properties" : {
          "data" : {
            "type" : "array",
            "description" : "결과 데이터",
            "items" : {
              "type" : "object",
              "properties" : {
                "music_url" : {
                  "type" : "string",
                  "description" : "음악의 URL"
                },
                "musicId" : {
                  "type" : "number",
                  "description" : "음악 식별 Id"
                },
                "image_url" : {
                  "type" : "string",
                  "description" : "음악 이미지의 URL"
                },
                "category" : {
                  "type" : "string",
                  "description" : "조회한 카테고리"
                },
                "title" : {
                  "type" : "string",
                  "description" : "음악 타이틀(제목)"
                },
                "tags" : {
                  "type" : "string",
                  "description" : "조회한 태그"
                }
              }
            }
          },
          "pageInfo" : {
            "type" : "object",
            "properties" : {
              "size" : {
                "type" : "number",
                "description" : "한 페이지에 속하는 데이터 개수"
              },
              "totalPages" : {
                "type" : "number",
                "description" : "전체 페이지 개수"
              },
              "page" : {
                "type" : "number",
                "description" : "현재 페이지"
              },
              "totalElements" : {
                "type" : "number",
                "description" : "전체 데이터 개수"
              }
            },
            "description" : "페이징 정보"
          }
        }
      },
      "api-members-member-id-793076289" : {
        "type" : "object",
        "properties" : {
          "profile" : {
            "type" : "string",
            "description" : "변경된 프로필 이미지"
          },
          "name" : {
            "type" : "string",
            "description" : "닉네임"
          },
          "email" : {
            "type" : "string",
            "description" : "사용자 이메일"
          }
        }
      },
      "api-playlist-dogOrCats-id-member-id452722795" : {
        "type" : "object",
        "properties" : {
          "data" : {
            "type" : "array",
            "description" : "결과 데이터",
            "items" : {
              "type" : "object",
              "properties" : {
                "music_url" : {
                  "type" : "string",
                  "description" : "음악의 URL"
                },
                "musicId" : {
                  "type" : "number",
                  "description" : "음악 식별 Id"
                },
                "image_url" : {
                  "type" : "string",
                  "description" : "음악 이미지의 URL"
                },
                "category" : {
                  "type" : "string",
                  "description" : "조회한 카테고리"
                },
                "title" : {
                  "type" : "string",
                  "description" : "음악 타이틀(제목)"
                },
                "liked" : {
                  "type" : "boolean",
                  "description" : "좋아요 여부(개인 플레이 리스트)"
                },
                "tags" : {
                  "type" : "string",
                  "description" : "조회한 태그"
                }
              }
            }
          },
          "pageInfo" : {
            "type" : "object",
            "properties" : {
              "size" : {
                "type" : "number",
                "description" : "한 페이지에 속하는 데이터 개수"
              },
              "totalPages" : {
                "type" : "number",
                "description" : "전체 페이지 개수"
              },
              "page" : {
                "type" : "number",
                "description" : "현재 페이지"
              },
              "totalElements" : {
                "type" : "number",
                "description" : "전체 데이터 개수"
              }
            },
            "description" : "페이징 정보"
          }
        }
      },
      "public-signup917238402" : {
        "type" : "object",
        "properties" : {
          "name" : {
            "type" : "string",
            "description" : "닉네임"
          },
          "email" : {
            "type" : "string",
            "description" : "사용자 이메일"
          },
          "memberId" : {
            "type" : "number",
            "description" : "사용자 식별자"
          }
        }
      },
      "public-signup-1374076140" : {
        "type" : "object",
        "properties" : {
          "password" : {
            "type" : "string",
            "description" : "비밀번호"
          },
          "name" : {
            "type" : "string",
            "description" : "닉네임"
          },
          "email" : {
            "type" : "string",
            "description" : "사용자 이메일"
          }
        }
      }
    }
  }
}